\relax 
\providecommand\hyper@newdestlabel[2]{}
\providecommand\HyperFirstAtBeginDocument{\AtBeginDocument}
\HyperFirstAtBeginDocument{\ifx\hyper@anchor\@undefined
\global\let\oldcontentsline\contentsline
\gdef\contentsline#1#2#3#4{\oldcontentsline{#1}{#2}{#3}}
\global\let\oldnewlabel\newlabel
\gdef\newlabel#1#2{\newlabelxx{#1}#2}
\gdef\newlabelxx#1#2#3#4#5#6{\oldnewlabel{#1}{{#2}{#3}}}
\AtEndDocument{\ifx\hyper@anchor\@undefined
\let\contentsline\oldcontentsline
\let\newlabel\oldnewlabel
\fi}
\fi}
\global\let\hyper@last\relax 
\gdef\HyperFirstAtBeginDocument#1{#1}
\providecommand\HyField@AuxAddToFields[1]{}
\providecommand\HyField@AuxAddToCoFields[2]{}
\citation{goldman07}
\citation{Elbakri02}
\@writefile{toc}{\contentsline {section}{\numberline {1}Probl\`eme}{2}{section.1}}
\@writefile{toc}{\contentsline {subsection}{\numberline {1.1}Principe et configuration exp\'erimentale}{2}{subsection.1.1}}
\@writefile{lof}{\contentsline {figure}{\numberline {1}{\ignorespaces Configuration exp\'erimentale d'un \textit  {CT-scan}. \copyright  \cite  {goldman07}}}{2}{figure.1}}
\newlabel{fig:config_exp}{{1}{2}{Configuration expérimentale d'un \textit {CT-scan}. \copyright \cite {goldman07}}{figure.1}{}}
\@writefile{toc}{\contentsline {subsection}{\numberline {1.2}Formulation math\'ematique}{3}{subsection.1.2}}
\newlabel{defy}{{2}{3}{Formulation mathématique}{equation.1.2}{}}
\citation{DeMan04}
\citation{Guan96}
\newlabel{sys_lin}{{3}{4}{Formulation mathématique}{equation.1.3}{}}
\@writefile{toc}{\contentsline {subsection}{\numberline {1.3}Introduction du bruit et estimation}{4}{subsection.1.3}}
\citation{Bouman93a}
\newlabel{mu_chapeau}{{4}{5}{Introduction du bruit et estimation}{equation.1.4}{}}
\citation{Goussard13}
\@writefile{toc}{\contentsline {subsection}{\numberline {1.4}G\'eom\'etrie cylindrique}{6}{subsection.1.4}}
\@writefile{toc}{\contentsline {subsection}{\numberline {1.5}P\'enalisation}{6}{subsection.1.5}}
\newlabel{defind}{{5}{7}{Pénalisation}{equation.1.5}{}}
\citation{Labouesse17}
\newlabel{probfinal}{{6}{9}{Pénalisation}{equation.1.6}{}}
\@writefile{toc}{\contentsline {subsection}{\numberline {1.6}M\'ethodes de r\'esolution proximales}{9}{subsection.1.6}}
\citation{Bauschke11}
\citation{Bauschke11}
\citation{Bauschke11}
\@writefile{toc}{\contentsline {section}{\numberline {2}Algorithmes proximaux}{10}{section.2}}
\@writefile{toc}{\contentsline {subsection}{\numberline {2.1}Op\'erateur de proximit\'e}{10}{subsection.2.1}}
\newlabel{defprox}{{7}{10}{Opérateur de proximité}{equation.2.7}{}}
\citation{Bauschke11}
\citation{Combettes05}
\citation{Condat13}
\citation{Combettes11}
\citation{Combettes05}
\newlabel{defconj}{{8}{11}{Opérateur de proximité}{equation.2.8}{}}
\newlabel{relproxconj}{{9}{11}{Opérateur de proximité}{equation.2.9}{}}
\newlabel{proxl1}{{10}{11}{Opérateur de proximité}{equation.2.10}{}}
\newlabel{proxl2}{{11}{11}{Opérateur de proximité}{equation.2.11}{}}
\@writefile{toc}{\contentsline {subsection}{\numberline {2.2}D\'ecomposition avant-arri\`ere}{12}{subsection.2.2}}
\newlabel{eqfb}{{12}{12}{Décomposition avant-arrière}{equation.2.12}{}}
\newlabel{lipschitz}{{13}{12}{Décomposition avant-arrière}{equation.2.13}{}}
\newlabel{eqfbkkt}{{14}{12}{Décomposition avant-arrière}{equation.2.14}{}}
\citation{Combettes11}
\citation{Parikh13}
\citation{Combettes05}
\citation{Goldstein14}
\citation{Goldstein14}
\@writefile{loa}{\contentsline {algorithm}{\numberline {1}{\ignorespaces D\'ecomposition avant-arri\`ere}}{13}{algorithm.1}}
\newlabel{algofb}{{1}{13}{Décomposition avant-arrière}{algorithm.1}{}}
\citation{Combettes11}
\citation{Combettes11}
\citation{Combettes11}
\citation{Condat13}
\@writefile{loa}{\contentsline {algorithm}{\numberline {2}{\ignorespaces FISTA}}{14}{algorithm.2}}
\newlabel{algofista}{{2}{14}{Décomposition avant-arrière}{algorithm.2}{}}
\@writefile{toc}{\contentsline {subsection}{\numberline {2.3}D\'ecomposition primale-duale}{14}{subsection.2.3}}
\newlabel{eqcadregen}{{15}{14}{Décomposition primale-duale}{equation.2.15}{}}
\citation{Condat13}
\citation{Condat13}
\citation{Bauschke11}
\citation{Bauschke11}
\newlabel{eqcadregendual}{{16}{15}{Décomposition primale-duale}{equation.2.16}{}}
\@writefile{loa}{\contentsline {algorithm}{\numberline {3}{\ignorespaces D\'ecomposition primale-duale (version A)}}{16}{algorithm.3}}
\newlabel{algogenA}{{3}{16}{Décomposition primale-duale}{algorithm.3}{}}
\citation{Condat13}
\@writefile{loa}{\contentsline {algorithm}{\numberline {4}{\ignorespaces D\'ecomposition primale-duale (version B)}}{17}{algorithm.4}}
\newlabel{algogenB}{{4}{17}{Décomposition primale-duale}{algorithm.4}{}}
\newlabel{condgend\'ebut}{{17}{17}{Décomposition primale-duale}{equation.2.17}{}}
\citation{Condat13}
\newlabel{condgenfin}{{22}{18}{Décomposition primale-duale}{equation.2.22}{}}
\newlabel{eqcadregen2}{{23}{18}{Décomposition primale-duale}{equation.2.23}{}}
\@writefile{loa}{\contentsline {algorithm}{\numberline {5}{\ignorespaces D\'ecomposition primale-duale \'etendue (version A)}}{19}{algorithm.5}}
\newlabel{algogenetA}{{5}{19}{Décomposition primale-duale}{algorithm.5}{}}
\@writefile{loa}{\contentsline {algorithm}{\numberline {6}{\ignorespaces D\'ecomposition primale-duale \'etendue (version B)}}{20}{algorithm.6}}
\newlabel{algogenetB}{{6}{20}{Décomposition primale-duale}{algorithm.6}{}}
\newlabel{condgenetd\'ebut}{{24}{20}{Décomposition primale-duale}{equation.2.24}{}}
\newlabel{condgenetavantfin}{{29}{21}{Décomposition primale-duale}{equation.2.29}{}}
\newlabel{condgenetfin}{{30}{21}{Décomposition primale-duale}{equation.2.30}{}}
\citation{Labouesse17}
\@writefile{toc}{\contentsline {section}{\numberline {3}Application}{22}{section.3}}
\@writefile{toc}{\contentsline {subsection}{\numberline {3.1}Analyse d'application en microscopie par illumination structur\'ee}{22}{subsection.3.1}}
\@writefile{loa}{\contentsline {algorithm}{\numberline {7}{\ignorespaces D\'ecomposition avant-arri\`ere appliqu\'ee \`a la microscopie \`a super-r\'esolution}}{23}{algorithm.7}}
\newlabel{algosim1}{{7}{23}{Analyse d'application en microscopie par illumination structurée}{algorithm.7}{}}
\@writefile{loa}{\contentsline {algorithm}{\numberline {8}{\ignorespaces FISTA appliqu\'e \`a la microscopie \`a super-r\'esolution}}{24}{algorithm.8}}
\newlabel{algosim2}{{8}{24}{Analyse d'application en microscopie par illumination structurée}{algorithm.8}{}}
\@writefile{loa}{\contentsline {algorithm}{\numberline {9}{\ignorespaces D\'ecomposition primale-duale pr\'econditionn\'ee SIM}}{25}{algorithm.9}}
\newlabel{algosim3}{{9}{25}{Analyse d'application en microscopie par illumination structurée}{algorithm.9}{}}
\newlabel{condsim}{{33}{25}{Analyse d'application en microscopie par illumination structurée}{equation.3.33}{}}
\@writefile{toc}{\contentsline {subsection}{\numberline {3.2}Application \`a notre probl\`eme}{26}{subsection.3.2}}
\newlabel{mu_chapeau_leretour}{{34}{26}{Application à notre problème}{equation.3.34}{}}
\@writefile{loa}{\contentsline {algorithm}{\numberline {10}{\ignorespaces D\'ecomposition primale-duale pr\'econditionn\'ee CT (A)}}{28}{algorithm.10}}
\newlabel{algotomoA}{{10}{28}{Application à notre problème}{algorithm.10}{}}
\@writefile{loa}{\contentsline {algorithm}{\numberline {11}{\ignorespaces D\'ecomposition primale-duale pr\'econditionn\'ee CT (B)}}{29}{algorithm.11}}
\newlabel{algotomoB}{{11}{29}{Application à notre problème}{algorithm.11}{}}
\newlabel{eqcondctdebut}{{35}{30}{Application à notre problème}{equation.3.35}{}}
\newlabel{eqcondctfin}{{38}{30}{Application à notre problème}{equation.3.38}{}}
\@writefile{toc}{\contentsline {subsection}{\numberline {3.3}Pr\'econditionnement}{30}{subsection.3.3}}
\newlabel{condC}{{39}{30}{Préconditionnement}{equation.3.39}{}}
\citation{Chen05}
\citation{Golkar13}
\@writefile{toc}{\contentsline {subsection}{\numberline {3.4}Conditions suffisantes de convergence}{33}{subsection.3.4}}
\citation{Labouesse17}
\@writefile{toc}{\contentsline {section}{\numberline {4}R\'esultats}{38}{section.4}}
\@writefile{toc}{\contentsline {subsection}{\numberline {4.1}Probl\`eme original}{38}{subsection.4.1}}
\@writefile{lof}{\contentsline {figure}{\numberline {2}{\ignorespaces Valeur de la fonction objectif des it\'er\'es d'une version non-pr\'econditionn\'ee convergente (gauche) et de la version avec pr\'econditionneur (droite). Temps de calcul total : 246 et 410 secondes respectivement.}}{39}{figure.2}}
\newlabel{fig:res_compobj}{{2}{39}{Valeur de la fonction objectif des itérés d'une version non-préconditionnée convergente (gauche) et de la version avec préconditionneur (droite). Temps de calcul total : 246 et 410 secondes respectivement}{figure.2}{}}
\@writefile{lof}{\contentsline {figure}{\numberline {3}{\ignorespaces R\'esolution num\'erique du probl\`eme sans (haut, gauche) et avec pr\'econditionneur (haut, droite) ainsi que la solution de la m\'ethode standard de r\'esolution (r\'etroprojection filtr\'ee - bas, gauche) et le fant\^ome recherch\'e (bas, droite). It\'erations affich\'ees : 1, 10, 100 et meilleure atteinte (829 sans pr\'econditionneur et 237 avec).}}{40}{figure.3}}
\newlabel{fig:res_comp}{{3}{40}{Résolution numérique du problème sans (haut, gauche) et avec préconditionneur (haut, droite) ainsi que la solution de la méthode standard de résolution (rétroprojection filtrée - bas, gauche) et le fantôme recherché (bas, droite). Itérations affichées : 1, 10, 100 et meilleure atteinte (829 sans préconditionneur et 237 avec)}{figure.3}{}}
\@writefile{toc}{\contentsline {subsection}{\numberline {4.2}Probl\`eme avec p\'enalisation $l_2$}{41}{subsection.4.2}}
\@writefile{lof}{\contentsline {figure}{\numberline {4}{\ignorespaces Solutions num\'eriques du probl\`eme par L-BFGS sur le probl\`eme $l_2$ (haut, gauche), par notre m\'ethode sur le probl\`eme $l_2$ (haut, droite) et par la r\'etroprojection filtr\'ee (bas, gauche) ainsi que le fant\^ome recherch\'e (bas, droite).}}{43}{figure.4}}
\newlabel{fig:res_compl2}{{4}{43}{Solutions numériques du problème par L-BFGS sur le problème $l_2$ (haut, gauche), par notre méthode sur le problème $l_2$ (haut, droite) et par la rétroprojection filtrée (bas, gauche) ainsi que le fantôme recherché (bas, droite)}{figure.4}{}}
\@writefile{lof}{\contentsline {figure}{\numberline {5}{\ignorespaces Valeur de la fonction objectif des it\'er\'es de L-BFGS (gauche) et de notre m\'ethode (droite). Temps de calcul total : 18 et 258 secondes respectivement.}}{44}{figure.5}}
\newlabel{fig:res_l2obj}{{5}{44}{Valeur de la fonction objectif des itérés de L-BFGS (gauche) et de notre méthode (droite). Temps de calcul total : 18 et 258 secondes respectivement}{figure.5}{}}
\citation{Yan17}
\@writefile{toc}{\contentsline {section}{\numberline {5}Conclusion}{45}{section.5}}
\bibdata{mois_ct_en,revueabr,baseLION}
\bibcite{goldman07}{1}
\bibcite{Elbakri02}{2}
\bibcite{DeMan04}{3}
\bibcite{Guan96}{4}
\bibcite{Bouman93a}{5}
\bibcite{Goussard13}{6}
\bibcite{Labouesse17}{7}
\bibcite{Bauschke11}{8}
\bibcite{Combettes05}{9}
\bibcite{Condat13}{10}
\bibcite{Combettes11}{11}
\bibcite{Parikh13}{12}
\bibcite{Goldstein14}{13}
\bibcite{Chen05}{14}
\bibcite{Golkar13}{15}
\bibcite{Yan17}{16}
\bibstyle{IEEEtran}
